{
  "$schema": "http://json-schema.org/draft-04/schema#",
  "definitions": {},
  "id": "http://http://bdc.com/signingDocuments-get-response.json",
  "properties": {
    "GetSigningDocumentsResponse": {
      "id": "/properties/GetSigningDocumentsResponse",
      "properties": {
        "SigningDocument": {
          "id": "/properties/GetSigningDocumentsResponse/properties/SigningDocument",
          "properties": {
            "DocumentId": {
              "description": "An explanation about the purpose of this instance.",
              "id": "/properties/GetSigningDocumentsResponse/properties/SigningDocument/properties/DocumentId",
              "type": "string"
            },
            "DocumentTypeSignature": {
              "description": "An explanation about the purpose of this instance.",
              "id": "/properties/GetSigningDocumentsResponse/properties/SigningDocument/properties/DocumentTypeSignature",
              "type": "string"
            },
            "IsElectronicSignature": {
              "description": "An explanation about the purpose of this instance.",
              "id": "/properties/GetSigningDocumentsResponse/properties/SigningDocument/properties/IsElectronicSignature",
              "type": "boolean"
            },
            "Name": {
              "description": "An explanation about the purpose of this instance.",
              "id": "/properties/GetSigningDocumentsResponse/properties/SigningDocument/properties/Name",
              "type": "string"
            },
            "Url": {
              "description": "An explanation about the purpose of this instance.",
              "id": "/properties/GetSigningDocumentsResponse/properties/SigningDocument/properties/Url",
              "type": "string"
            }
          },
          "type": "object"
        }
      },
      "type": "object"
    }
  },
  "type": "object"
}
