{
    "$schema": "http://json-schema.org/draft-04/schema#",
    "definitions": {},
    "id": "http://bdc.com/update-cached-signatories-response.json",
    "properties": {
        "UpdateCachedSignatoriesResponse": {
            "id": "/properties/UpdateCachedSignatoriesResponse",
            "properties": {
                "Result": {
                    "id": "/properties/UpdateCachedSignatoriesResponse/properties/Result",
                    "type": "boolean"
                }
            },
            "required": [
                "Result"
            ],
            "type": "object"
        }
    },
    "required": [
        "UpdateCachedSignatoriesResponse"
    ],
    "type": "object"
}
