{
    "$schema": "http://json-schema.org/draft-04/schema#",
    "additionalProperties": false,
    "definitions": {},
    "id": "http://bdc.com/suggested-variance-post-request.json",
    "properties": {
        "GetSuggestedVarianceResponse": {
            "additionalProperties": false,
            "id": "/properties/GetSuggestedVarianceResponse",
            "properties": {
                "SuggestedVariance": {
                    "id": "/properties/GetSuggestedVarianceResponse/properties/SuggestedVariance",
                    "items": {
                        "additionalProperties": false,
                        "id": "/properties/GetSuggestedVarianceResponse/properties/SuggestedVariance/items",
                        "properties": {
                            "FinancialImpactAtAuthorizationAmount": {
                                "id": "/properties/GetSuggestedVarianceResponse/properties/SuggestedVariance/items/properties/FinancialImpactAtAuthorizationAmount",
                                "type": "number"
                            },
                            "GetSuggestedVariance_RepaymentScheduleStep": {
                                "additionalProperties": false,
                                "id": "/properties/GetSuggestedVarianceResponse/properties/SuggestedVariance/items/properties/GetSuggestedVariance_RepaymentScheduleStep",
                                "properties": {
                                    "RepaymentScheduleStep": {
                                        "id": "/properties/GetSuggestedVarianceResponse/properties/SuggestedVariance/items/properties/GetSuggestedVariance_RepaymentScheduleStep/properties/RepaymentScheduleStep",
                                        "items": {
                                            "additionalProperties": false,
                                            "id": "/properties/GetSuggestedVarianceResponse/properties/SuggestedVariance/items/properties/GetSuggestedVariance_RepaymentScheduleStep/properties/RepaymentScheduleStep/items",
                                            "properties": {
                                                "CalculatedStartDate": {
                                                    "id": "/properties/GetSuggestedVarianceResponse/properties/SuggestedVariance/items/properties/GetSuggestedVariance_RepaymentScheduleStep/properties/RepaymentScheduleStep/items/properties/CalculatedStartDate",
                                                    "type": "string",
                                                    "format": "date-time"
                                                },
                                                "NumberOfPayments": {
                                                    "id": "/properties/GetSuggestedVarianceResponse/properties/SuggestedVariance/items/properties/GetSuggestedVariance_RepaymentScheduleStep/properties/RepaymentScheduleStep/items/properties/NumberOfPayments",
                                                    "type": "integer"
                                                },
                                                "PaymentAmount": {
                                                    "id": "/properties/GetSuggestedVarianceResponse/properties/SuggestedVariance/items/properties/GetSuggestedVariance_RepaymentScheduleStep/properties/RepaymentScheduleStep/items/properties/PaymentAmount",
                                                    "type": "number"
                                                },
                                                "ScheduleStepType": {
                                                    "id": "/properties/GetSuggestedVarianceResponse/properties/SuggestedVariance/items/properties/GetSuggestedVariance_RepaymentScheduleStep/properties/RepaymentScheduleStep/items/properties/ScheduleStepType",
                                                    "type": "string"
                                                },
                                                "SequenceNumber": {
                                                    "id": "/properties/GetSuggestedVarianceResponse/properties/SuggestedVariance/items/properties/GetSuggestedVariance_RepaymentScheduleStep/properties/RepaymentScheduleStep/items/properties/SequenceNumber",
                                                    "type": "integer"
                                                }
                                            },
                                            "required": [
                                                "NumberOfPayments",
                                                "PaymentAmount",
                                                "SequenceNumber",
                                                "CalculatedStartDate"
                                            ],
                                            "type": "object"
                                        },
                                        "type": "array"
                                    }
                                },
                                "required": [
                                    "RepaymentScheduleStep"
                                ],
                                "type": "object"
                            },
                            "LoanPurposeCRMID": {
                                "id": "/properties/GetSuggestedVarianceResponse/properties/SuggestedVariance/items/properties/LoanPurposeCRMID",
                                "type": "string"
                            },
                            "SuggestedVariancePercentage": {
                                "id": "/properties/GetSuggestedVarianceResponse/properties/SuggestedVariance/items/properties/SuggestedVariancePercentage",
                                "type": "number"
                            }
                        },
                        "required": [
                            "SuggestedVariancePercentage"
                        ],
                        "type": "object"
                    },
                    "type": "array"
                }
            },
            "required": [
                "SuggestedVariance"
            ],
            "type": "object"
        }
    },
    "required": [
        "GetSuggestedVarianceResponse"
    ],
    "type": "object"
}
