{
	"GetSuggestedFees": {
		"GetSuggestedFeesRequest": {
			"Username": "string",
			"AccountCRMID": "string",
			"ParamsGetSuggestedFeesList": {
				"ParamsGetSuggestedFees": [
					{
						"FinancingOrSubFinProductCRMID": "string",
						"ProductInitiativeCRMID": "string",
						"ProductPartnershipAllianceCRMID": "string",
						"LoanAmount": 10.98,
						"LoanPurposeCRMID": "string"
					},
					{
						"FinancingOrSubFinProductCRMID": "string",
						"ProductInitiativeCRMID": "string",
						"ProductPartnershipAllianceCRMID": "string",
						"LoanAmount": 10.98,
						"LoanPurposeCRMID": "string"
					}
				]
			}
		}
	}
}
