{
	"GetSuggestedVarianceResponse": {
		"SuggestedVariance": [
			{
				"LoanPurposeCRMID": "string",
				"FinancialImpactAtAuthorizationAmount": 1817.27,
				"SuggestedVariancePercentage": 1817.27,
				"GetSuggestedVariance_RepaymentScheduleStep": {
					"RepaymentScheduleStep": [
						{
							"SequenceNumber": 1098772,
							"PaymentAmount": 1817.27,
							"NumberOfPayments": 1098772,
							"CalculatedStartDate": "2017-10-16T21:09:09+02:00",
							"ScheduleStepType": "string"
						},
						{
							"SequenceNumber": 1098772,
							"PaymentAmount": 1817.27,
							"NumberOfPayments": 1098772,
							"CalculatedStartDate": "2017-10-16T21:09:09+02:00",
							"ScheduleStepType": "string"
						}
					]
				}
			},
			{
				"LoanPurposeCRMID": "string",
				"FinancialImpactAtAuthorizationAmount": 1817.27,
				"SuggestedVariancePercentage": 1817.27,
				"GetSuggestedVariance_RepaymentScheduleStep": {
					"RepaymentScheduleStep": [
						{
							"SequenceNumber": 1098772,
							"PaymentAmount": 1817.27,
							"NumberOfPayments": 1098772,
							"CalculatedStartDate": "2017-10-16T21:09:09+02:00",
							"ScheduleStepType": "string"
						},
						{
							"SequenceNumber": 1098772,
							"PaymentAmount": 1817.27,
							"NumberOfPayments": 1098772,
							"CalculatedStartDate": "2017-10-16T21:09:09+02:00",
							"ScheduleStepType": "string"
						}
					]
				}
			}
		]
	}
}
