{
    "$schema": "http://json-schema.org/draft-04/schema#",
    "definitions": {},
    "id": "http://bdc.com/client-completed-signing-response.json",
    "properties": {
        "ClientCompletedSigningResponse": {
            "id": "/properties/ClientCompletedSigningResponse",
            "properties": {
                "Result": {
                    "id": "/properties/ClientCompletedSigningResponse/properties/Result",
                    "type": "string"
                }
            },
            "required": [
                "Result"
            ],
            "type": "object"
        }
    },
    "required": [
        "ClientCompletedSigningResponse"
    ],
    "type": "object"
}
