{
    "$schema": "http://json-schema.org/draft-04/schema#",
    "additionalProperties": false,
    "definitions": {},
    "id": "http://bdc.com/loans-structure-post-response.json",
    "properties": {
        "GetLoanStructureResponse": {
            "additionalProperties": false,
            "id": "/properties/GetLoanStructureResponse",
            "properties": {
                "LoanStructure": {
                    "additionalProperties": false,
                    "id": "/properties/GetLoanStructureResponse/properties/LoanStructure",
                    "properties": {
                        "AccountCRMID": {
                            "id": "/properties/GetLoanStructureResponse/properties/LoanStructure/properties/AccountCRMID",
                            "type": "string"
                        },
                        "Language": {
                            "id": "/properties/GetLoanStructureResponse/properties/LoanStructure/properties/Language",
                            "type": "string"
                        },
                        "LoanPurposeInfos": {
                            "additionalProperties": false,
                            "id": "/properties/GetLoanStructureResponse/properties/LoanStructure/properties/LoanPurposeInfos",
                            "properties": {
                                "LoanPurposeInfo": {
                                    "id": "/properties/GetLoanStructureResponse/properties/LoanStructure/properties/LoanPurposeInfos/properties/LoanPurposeInfo",
                                    "items": {
                                        "additionalProperties": false,
                                        "id": "/properties/GetLoanStructureResponse/properties/LoanStructure/properties/LoanPurposeInfos/properties/LoanPurposeInfo/items",
                                        "properties": {
                                            "FinancialImpact": {
                                                "id": "/properties/GetLoanStructureResponse/properties/LoanStructure/properties/LoanPurposeInfos/properties/LoanPurposeInfo/items/properties/FinancialImpact",
                                                "type": "number"
                                            },
                                            "LoanAmount": {
                                                "id": "/properties/GetLoanStructureResponse/properties/LoanStructure/properties/LoanPurposeInfos/properties/LoanPurposeInfo/items/properties/LoanAmount",
                                                "type": "number"
                                            },
                                            "LoanPurposeCRMID": {
                                                "id": "/properties/GetLoanStructureResponse/properties/LoanStructure/properties/LoanPurposeInfos/properties/LoanPurposeInfo/items/properties/LoanPurposeCRMID",
                                                "type": "string"
                                            },
                                            "LoanPurposeInfo_RepaymentScheduleStep": {
                                                "additionalProperties": false,
                                                "id": "/properties/GetLoanStructureResponse/properties/LoanStructure/properties/LoanPurposeInfos/properties/LoanPurposeInfo/items/properties/LoanPurposeInfo_RepaymentScheduleStep",
                                                "properties": {
                                                    "RepaymentScheduleStep": {
                                                        "id": "/properties/GetLoanStructureResponse/properties/LoanStructure/properties/LoanPurposeInfos/properties/LoanPurposeInfo/items/properties/LoanPurposeInfo_RepaymentScheduleStep/properties/RepaymentScheduleStep",
                                                        "items": {
                                                            "additionalProperties": false,
                                                            "id": "/properties/GetLoanStructureResponse/properties/LoanStructure/properties/LoanPurposeInfos/properties/LoanPurposeInfo/items/properties/LoanPurposeInfo_RepaymentScheduleStep/properties/RepaymentScheduleStep/items",
                                                            "properties": {
                                                                "CalculatedStartDate": {
                                                                    "id": "/properties/GetLoanStructureResponse/properties/LoanStructure/properties/LoanPurposeInfos/properties/LoanPurposeInfo/items/properties/LoanPurposeInfo_RepaymentScheduleStep/properties/RepaymentScheduleStep/items/properties/CalculatedStartDate",
                                                                    "type": "string",
                                                                    "format": "date-time"
                                                                },
                                                                "NumberOfPayments": {
                                                                    "id": "/properties/GetLoanStructureResponse/properties/LoanStructure/properties/LoanPurposeInfos/properties/LoanPurposeInfo/items/properties/LoanPurposeInfo_RepaymentScheduleStep/properties/RepaymentScheduleStep/items/properties/NumberOfPayments",
                                                                    "type": "integer"
                                                                },
                                                                "PaymentAmount": {
                                                                    "id": "/properties/GetLoanStructureResponse/properties/LoanStructure/properties/LoanPurposeInfos/properties/LoanPurposeInfo/items/properties/LoanPurposeInfo_RepaymentScheduleStep/properties/RepaymentScheduleStep/items/properties/PaymentAmount",
                                                                    "type": "number"
                                                                },
                                                                "ScheduleStepType": {
                                                                    "id": "/properties/GetLoanStructureResponse/properties/LoanStructure/properties/LoanPurposeInfos/properties/LoanPurposeInfo/items/properties/LoanPurposeInfo_RepaymentScheduleStep/properties/RepaymentScheduleStep/items/properties/ScheduleStepType",
                                                                    "type": "string"
                                                                },
                                                                "SequenceNumber": {
                                                                    "id": "/properties/GetLoanStructureResponse/properties/LoanStructure/properties/LoanPurposeInfos/properties/LoanPurposeInfo/items/properties/LoanPurposeInfo_RepaymentScheduleStep/properties/RepaymentScheduleStep/items/properties/SequenceNumber",
                                                                    "type": "integer"
                                                                }
                                                            },
                                                            "required": [
                                                                "NumberOfPayments",
                                                                "PaymentAmount",
                                                                "ScheduleStepType",
                                                                "SequenceNumber",
                                                                "CalculatedStartDate"
                                                            ],
                                                            "type": "object"
                                                        },
                                                        "type": "array"
                                                    }
                                                },
                                                "required": [
                                                    "RepaymentScheduleStep"
                                                ],
                                                "type": "object"
                                            },
                                            "SecurityTakingMethodCRMID": {
                                                "id": "/properties/GetLoanStructureResponse/properties/LoanStructure/properties/LoanPurposeInfos/properties/LoanPurposeInfo/items/properties/SecurityTakingMethodCRMID",
                                                "type": "string"
                                            },
                                            "SecurityTakingMethodLabel": {
                                                "id": "/properties/GetLoanStructureResponse/properties/LoanStructure/properties/LoanPurposeInfos/properties/LoanPurposeInfo/items/properties/SecurityTakingMethodLabel",
                                                "type": "string"
                                            },
                                            "SuggestedManagementFee": {
                                                "id": "/properties/GetLoanStructureResponse/properties/LoanStructure/properties/LoanPurposeInfos/properties/LoanPurposeInfo/items/properties/SuggestedManagementFee",
                                                "type": "number"
                                            },
                                            "SuggestedProcessingFee": {
                                                "id": "/properties/GetLoanStructureResponse/properties/LoanStructure/properties/LoanPurposeInfos/properties/LoanPurposeInfo/items/properties/SuggestedProcessingFee",
                                                "type": "number"
                                            },
                                            "SuggestedVariance": {
                                                "id": "/properties/GetLoanStructureResponse/properties/LoanStructure/properties/LoanPurposeInfos/properties/LoanPurposeInfo/items/properties/SuggestedVariance",
                                                "type": "number"
                                            }
                                        },
                                        "required": [
                                            "FinancialImpact",
                                            "SuggestedManagementFee",
                                            "LoanAmount",
                                            "LoanPurposeCRMID",
                                            "SuggestedProcessingFee",
                                            "SuggestedVariance",
                                            "SecurityTakingMethodLabel",
                                            "LoanPurposeInfo_RepaymentScheduleStep",
                                            "SecurityTakingMethodCRMID"
                                        ],
                                        "type": "object"
                                    },
                                    "type": "array"
                                }
                            },
                            "required": [
                                "LoanPurposeInfo"
                            ],
                            "type": "object"
                        },
                        "Rates": {
                            "additionalProperties": false,
                            "id": "/properties/GetLoanStructureResponse/properties/LoanStructure/properties/Rates",
                            "properties": {
                                "Rate": {
                                    "id": "/properties/GetLoanStructureResponse/properties/LoanStructure/properties/Rates/properties/Rate",
                                    "items": {
                                        "additionalProperties": false,
                                        "id": "/properties/GetLoanStructureResponse/properties/LoanStructure/properties/Rates/properties/Rate/items",
                                        "properties": {
                                            "CurrencyCode": {
                                                "id": "/properties/GetLoanStructureResponse/properties/LoanStructure/properties/Rates/properties/Rate/items/properties/CurrencyCode",
                                                "type": "string"
                                            },
                                            "EffectiveDate": {
                                                "id": "/properties/GetLoanStructureResponse/properties/LoanStructure/properties/Rates/properties/Rate/items/properties/EffectiveDate",
                                                "type": "string",
                                                "format": "date-time"
                                            },
                                            "NameEnglish": {
                                                "id": "/properties/GetLoanStructureResponse/properties/LoanStructure/properties/Rates/properties/Rate/items/properties/NameEnglish",
                                                "type": "string"
                                            },
                                            "NameFrench": {
                                                "id": "/properties/GetLoanStructureResponse/properties/LoanStructure/properties/Rates/properties/Rate/items/properties/NameFrench",
                                                "type": "string"
                                            },
                                            "Rate": {
                                                "id": "/properties/GetLoanStructureResponse/properties/LoanStructure/properties/Rates/properties/Rate/items/properties/Rate",
                                                "type": "number"
                                            },
                                            "RateIndex": {
                                                "id": "/properties/GetLoanStructureResponse/properties/LoanStructure/properties/Rates/properties/Rate/items/properties/RateIndex",
                                                "type": "string"
                                            },
                                            "RateType": {
                                                "id": "/properties/GetLoanStructureResponse/properties/LoanStructure/properties/Rates/properties/Rate/items/properties/RateType",
                                                "type": "string"
                                            },
                                            "TermInYear": {
                                                "id": "/properties/GetLoanStructureResponse/properties/LoanStructure/properties/Rates/properties/Rate/items/properties/TermInYear",
                                                "type": "integer"
                                            }
                                        },
                                        "required": [
                                            "NameFrench",
                                            "EffectiveDate",
                                            "CurrencyCode",
                                            "RateIndex",
                                            "RateType",
                                            "NameEnglish",
                                            "Rate",
                                            "TermInYear"
                                        ],
                                        "type": "object"
                                    },
                                    "type": "array"
                                }
                            },
                            "required": [
                                "Rate"
                            ],
                            "type": "object"
                        }
                    },
                    "required": [
                        "Rates",
                        "AccountCRMID",
                        "Language",
                        "LoanPurposeInfos"
                    ],
                    "type": "object"
                }
            },
            "required": [
                "LoanStructure"
            ],
            "type": "object"
        }
    },
    "required": [
        "GetLoanStructureResponse"
    ],
    "type": "object"
}
