{
	"eligibility": {
		"accountCRMID": "string",
		"isEligible": true,
		"eligibilityContractVersion": 1001010,
		"eligibilityLoggingId": 10101010,
		"reasons": {
			"reason": [
				{
					"code": "string",
					"disclaimer": "string"
				},
				{
					"code": "string",
					"disclaimer": "string"
				}
			]
		}
	}
}
