{
	"GetOfferConditionsResponse": {
		"Conditions": [
			{
				"ConditionId": 1234567890123,
				"SecuritySubCategory": "string",
				"ConditionGroup": "string",
				"ConditionCategory": "string",
				"ConditionSubCategory": "string",
				"ConditionDescription": "string",
				"GuaranteePercentage": 100.65
			},
			{
				"ConditionId": 1234567890123,
				"SecuritySubCategory": "string",
				"ConditionGroup": "string",
				"ConditionCategory": "string",
				"ConditionSubCategory": "string",
				"ConditionDescription": "string",
				"GuaranteePercentage": 100.65
			}
		]
	}
}
