{
	"UpdateInvitations": {
		"UpdateInvitationsRequest": {
			"SignatoryList": {
				"Signatory": [
					{
						"SignatoryId": "string",
						"Email": "string",
						"CellPhone": "string",
						"IdentityVerificationQuestion": "string",
						"IdentityVerificationAnswer": "string",
						"SignatureType": "Remote",
						"AuthenticationMethod": "Email"
					},
					{
						"SignatoryId": "string",
						"Email": "string",
						"CellPhone": "string",
						"IdentityVerificationQuestion": "string",
						"IdentityVerificationAnswer": "string",
						"SignatureType": "In_Person",
						"AuthenticationMethod": "SMS"
					}
				]
			}
		}
	}
}
